{"tours":[{"id":"t-1001","name":"A guided hike in the Dolomites","destination":"Dolomites, Italy","startDate":"2026-08-05","durations":["7 days","10 days","12 days"],"mealPlans":["Full-board (FB)"],"price":"from $1400 for 1 person","rating":5.0,"reviews":19,"freeCancellation":"2026-07-26"},{"id":"t-1002","name":"Tropical Caribe","destination":"Punta Cana, Dominican Republic","startDate":"2026-08-08","durations":["7 days","10 days","12 days"],"mealPlans":["Breakfast (BB)","Half-board (HB)","Full-board (FB)","All inclusive (AI)"],"price":"from $1400 for 1 person","rating":5.0,"reviews":19,"freeCancellation":"2026-07-29"},{"id":"t-1003","name":"Riverside Resort","destination":"Ao Nang, Thailand","startDate":"2026-08-12","durations":["7 days","10 days","12 days"],"mealPlans":["Breakfast (BB)","Half-board (HB)","Full-board (FB)","All inclusive (AI)"],"price":"from $1400 for 1 person","rating":5.0,"reviews":19,"freeCancellation":"2026-08-02"},{"id":"t-1004","name":"Costa Cruise","destination":"Mediterranean Sea, International","startDate":"2026-08-20","durations":["7 days","10 days","12 days"],"mealPlans":["Full-board (FB)","All inclusive (AI)"],"price":"from $1400 for 1 person","rating":5.0,"reviews":19,"freeCancellation":"2026-08-10"},{"id":"t-1006","name":"Machu Picchu Explorer","destination":"Cusco, Peru","startDate":"2026-05-19","durations":["7 days","10 days"],"mealPlans":["Full-board (FB)"],"price":"from $2100 for 1 person","rating":4.9,"reviews":387,"freeCancellation":"2026-05-09"},{"id":"t-1008","name":"Coral Bay Escape","destination":"Boracay, Philippines","startDate":"2026-06-08","durations":["5 days","7 days","10 days"],"mealPlans":["Breakfast (BB)","All inclusive (AI)"],"price":"from $1520 for 1 person","rating":4.9,"reviews":228,"freeCancellation":"2026-05-29"}],"page":1,"pageSize":6,"totalPages":3,"totalItems":18}